<svg width="285" height="239" viewBox="0 0 285 239" fill="none" xmlns="http://www.w3.org/2000/svg">
<path d="M40.3857 124.7L13.6561 163.781" stroke="black" stroke-width="1.5" stroke-miterlimit="10" stroke-linecap="round" stroke-linejoin="round"/>
<path d="M248.519 139.314L262.17 117.046" stroke="black" stroke-width="1.5" stroke-miterlimit="10" stroke-linecap="round" stroke-dasharray="15 15"/>
<path d="M219.88 195.324C219.88 196.375 219.802 197.399 219.671 198.396C218.91 203.726 216.211 208.426 212.279 211.734C208.531 214.911 203.709 216.827 198.414 216.827C196.816 216.827 195.243 216.644 193.749 216.302C186.935 214.779 181.352 210.027 178.652 203.752C177.552 201.153 176.923 198.317 176.923 195.298C176.923 194.563 176.949 193.854 177.027 193.119C177.316 190.152 178.233 187.343 179.596 184.875C181.273 181.829 183.685 179.23 186.568 177.34C189.949 175.108 194.011 173.795 198.388 173.795C205.727 173.795 212.227 177.497 216.08 183.116C218.465 186.608 219.88 190.808 219.88 195.324Z" fill="#FFE443" stroke="black" stroke-width="1.5" stroke-miterlimit="10"/>
<path d="M200.459 197.11C199.358 198.554 198.624 200.287 198.362 202.098C198.179 203.306 198.257 204.619 198.991 205.564C199.673 206.457 200.826 206.85 201.927 207.06C204.128 207.454 206.435 207.244 208.505 206.404C210.471 205.616 212.41 203.962 212.358 201.836C212.332 199.866 210.497 198.265 208.558 198.002C206.618 197.74 204.679 198.554 203.08 199.709C202.267 200.287 201.481 201.127 201.56 202.124C201.664 203.07 202.503 203.726 203.342 204.12C204.154 204.514 205.072 204.803 205.989 204.619C206.88 204.435 207.719 203.7 207.745 202.807C207.771 201.888 206.749 201.048 205.937 201.442" stroke="black" stroke-width="1.5" stroke-miterlimit="10" stroke-linecap="round" stroke-linejoin="round"/>
<path d="M219.88 195.324C219.88 196.375 219.802 197.399 219.671 198.396C216.814 196.27 214.036 194.012 210.602 193.303C207.221 192.62 203.761 193.592 200.302 193.723C195.767 193.907 191.259 192.568 187.249 190.388C184.497 188.892 181.955 186.975 179.622 184.875C181.3 181.829 183.711 179.23 186.594 177.34C189.346 178.889 192.019 180.779 194.929 181.96C201.35 184.56 208.584 183.536 215.503 183.142C215.713 183.142 215.896 183.116 216.106 183.116C218.465 186.608 219.88 190.808 219.88 195.324Z" fill="#FF3E3E" stroke="black" stroke-width="1.5" stroke-miterlimit="10" stroke-linecap="round"/>
<path d="M212.253 211.76C208.505 214.937 203.683 216.854 198.388 216.854C196.789 216.854 195.217 216.67 193.723 216.329C191.626 212.942 189.477 209.581 186.279 207.297C183.999 205.669 181.326 204.697 178.652 203.779C177.552 201.179 176.923 198.344 176.923 195.324C176.923 194.589 176.949 193.88 177.027 193.145C180.199 194.904 183.265 196.873 186.175 199.026C188.114 200.47 190.001 201.967 191.81 203.568C193.382 204.96 194.929 206.404 196.763 207.428C200.275 209.371 204.495 209.502 208.427 210.369C209.763 210.684 211.1 211.077 212.253 211.76Z" fill="#FF3E3E" stroke="black" stroke-width="1.5" stroke-miterlimit="10" stroke-linecap="round"/>
<path d="M255.679 77.6514L275.112 46.9672" stroke="white" stroke-width="1.5" stroke-miterlimit="10" stroke-linecap="round" stroke-dasharray="15 15"/>
<path d="M249.542 88.9022C251.801 88.9022 253.633 87.0705 253.633 84.811C253.633 82.5515 251.801 80.7198 249.542 80.7198C247.282 80.7198 245.45 82.5515 245.45 84.811C245.45 87.0705 247.282 88.9022 249.542 88.9022Z" fill="#FF6224" stroke="black" stroke-width="1.5" stroke-miterlimit="10"/>
<path d="M255.678 195.274C259.633 195.274 262.838 192.069 262.838 188.114C262.838 184.16 259.633 180.955 255.678 180.955C251.724 180.955 248.519 184.16 248.519 188.114C248.519 192.069 251.724 195.274 255.678 195.274Z" stroke="white" stroke-width="1.5" stroke-miterlimit="10" stroke-linecap="round" stroke-dasharray="15 15"/>
<path d="M7.3405 180.519C10.8423 180.519 13.681 177.675 13.681 174.167C13.681 170.66 10.8423 167.816 7.3405 167.816C3.83874 167.816 1 170.66 1 174.167C1 177.675 3.83874 180.519 7.3405 180.519Z" fill="#FF6224" stroke="black" stroke-width="1.5" stroke-miterlimit="10"/>
<path d="M32.5615 34.2374C35.3181 34.2374 37.5528 31.9989 37.5528 29.2374C37.5528 26.476 35.3181 24.2374 32.5615 24.2374C29.8048 24.2374 27.5701 26.476 27.5701 29.2374C27.5701 31.9989 29.8048 34.2374 32.5615 34.2374Z" stroke="black" stroke-width="1.5" stroke-miterlimit="10" stroke-linecap="round" stroke-dasharray="15 15"/>
<path d="M118.623 10.1977C117.01 9.86151 115.464 11.223 114.899 12.7863C114.334 14.3327 114.433 16.0472 114.367 17.7113C114.3 19.3754 113.935 21.1572 112.721 22.2498C111.059 23.7458 108.133 23.6785 107.136 25.6956C106.62 26.7378 106.836 27.9985 106.554 29.1247C105.706 32.6377 100.785 33.495 99.1893 36.7391" stroke="black" stroke-width="1.5" stroke-miterlimit="10" stroke-linecap="round" stroke-linejoin="round"/>
<path d="M275.112 164.396C275.42 166.291 277.356 167.687 279.278 167.658C281.111 167.628 282.916 166.394 283.488 164.645C284.06 162.897 283.297 160.766 281.669 159.899C280.466 159.238 278.838 159.341 277.826 160.281C276.813 161.207 276.593 162.941 277.459 164.014C278.324 165.086 280.202 165.145 281.053 164.058" stroke="black" stroke-width="1.5" stroke-miterlimit="10" stroke-linecap="round" stroke-linejoin="round"/>
<path d="M63.6129 109.371L63.2648 113.754L59.9827 110.84L55.7308 111.861L57.4962 107.851L55.2087 104.09L59.56 104.538L62.4194 101.176L63.3394 105.485L67.3924 107.154L63.6129 109.371Z" fill="#FFE443" stroke="black" stroke-width="1.5" stroke-miterlimit="10" stroke-linejoin="round"/>
<path d="M72.0372 213.402L56 238.094" stroke="white" stroke-width="1.5" stroke-miterlimit="10" stroke-linecap="round" stroke-linejoin="round" stroke-dasharray="15 15"/>
<path d="M97.1444 174.75L72.0372 213.402" stroke="white" stroke-width="1.5" stroke-miterlimit="10" stroke-linecap="round" stroke-linejoin="round"/>
<path d="M124.519 167.643L97.6747 208.95" stroke="white" stroke-width="1.5" stroke-miterlimit="10" stroke-linecap="round" stroke-linejoin="round" stroke-dasharray="15 15"/>
<path d="M142.147 162.184L126.896 185.65" stroke="white" stroke-width="1.5" stroke-miterlimit="10" stroke-linecap="round" stroke-linejoin="round"/>
<path d="M76.7551 173.908L66.9902 188.929" stroke="white" stroke-width="1.5" stroke-miterlimit="10" stroke-linecap="round" stroke-linejoin="round" stroke-dasharray="15 15"/>
<path d="M87.3978 157.513L76.7551 173.908" stroke="white" stroke-width="1.5" stroke-miterlimit="10" stroke-linecap="round" stroke-linejoin="round"/>
<path d="M121.118 157L79.9734 220.344" stroke="white" stroke-width="1.5" stroke-miterlimit="10" stroke-linecap="round" stroke-linejoin="round"/>
<path d="M273.287 80.7198L255.707 107.222" stroke="black" stroke-width="1.5" stroke-miterlimit="10" stroke-linecap="round" stroke-linejoin="round"/>
<path d="M37.6505 166.645L20.0712 193.147" stroke="black" stroke-width="1.5" stroke-miterlimit="10" stroke-linecap="round" stroke-linejoin="round"/>
<path d="M214.675 114.307C217.449 114.307 219.698 112.054 219.698 109.276C219.698 106.497 217.449 104.244 214.675 104.244C211.901 104.244 209.652 106.497 209.652 109.276C209.652 112.054 211.901 114.307 214.675 114.307Z" stroke="black" stroke-width="1.5" stroke-miterlimit="10" stroke-linecap="round" stroke-linejoin="round"/>
<path d="M80.6659 47.7781C82.8631 47.7781 84.6443 45.9938 84.6443 43.7928C84.6443 41.5918 82.8631 39.8076 80.6659 39.8076C78.4688 39.8076 76.6876 41.5918 76.6876 43.7928C76.6876 45.9938 78.4688 47.7781 80.6659 47.7781Z" stroke="black" stroke-width="1.5" stroke-miterlimit="10" stroke-linecap="round" stroke-linejoin="round"/>
<path d="M16.335 74.583C18.5906 74.583 20.4191 72.7512 20.4191 70.4917C20.4191 68.2322 18.5906 66.4005 16.335 66.4005C14.0794 66.4005 12.2509 68.2322 12.2509 70.4917C12.2509 72.7512 14.0794 74.583 16.335 74.583Z" stroke="black" stroke-width="1.5" stroke-miterlimit="10" stroke-linecap="round" stroke-linejoin="round"/>
<path d="M189.232 67.6429L149.234 129.758C147.288 132.763 142.64 131.553 142.424 127.985C142.424 127.942 142.424 127.899 142.424 127.834C142.337 125.542 140.651 123.704 138.489 123.272C138.056 123.185 137.624 123.164 137.17 123.185C136.716 123.207 136.262 123.185 135.851 123.099C133.711 122.667 132.046 120.829 131.916 118.537C131.808 116.245 130.143 114.408 127.981 113.975C127.549 113.889 127.116 113.867 126.662 113.889C126.208 113.932 125.754 113.889 125.344 113.802C123.203 113.37 121.538 111.532 121.409 109.24C121.301 106.949 119.636 105.111 117.474 104.679C117.041 104.592 116.609 104.57 116.155 104.592C115.701 104.614 115.247 104.592 114.836 104.506C112.696 104.073 111.031 102.235 110.901 99.9437C110.793 97.6519 109.128 95.8142 106.988 95.3818C106.555 95.2953 106.123 95.2737 105.669 95.2953C105.215 95.3169 104.761 95.2953 104.35 95.2088C102.21 94.7764 100.545 92.9387 100.415 90.6469C100.307 88.3552 98.6425 86.5175 96.5021 86.0851C96.0697 85.9986 95.6372 85.977 95.1832 85.9986C94.7292 86.0202 94.2752 85.9986 93.8644 85.9121C91.724 85.4797 90.0592 83.642 89.9511 81.3502C89.843 79.0585 88.1782 77.2207 86.0162 76.7883C85.5838 76.7018 85.1514 76.6802 84.6974 76.7019C84.2433 76.7235 83.7893 76.7235 83.3785 76.6154C82.9245 76.5073 82.5137 76.3775 82.1678 76.2262C79.6382 75.1452 79.8112 71.4914 82.4056 70.5617L158.487 43.5147L189.232 67.6429Z" fill="#FF3E3E" stroke="black" stroke-width="1.5" stroke-miterlimit="10" stroke-linecap="round"/>
<path d="M184.67 113.197L173.081 127.877L165.449 137.52L163.179 148.762C162.682 151.227 160.282 152.827 157.817 152.33C155.353 151.832 153.753 149.433 154.25 146.946L156.758 134.644C156.909 133.952 157.212 133.282 157.644 132.72L165.644 122.602L174.378 111.554L167.633 107.359C165.492 106.041 164.844 103.23 166.163 101.09C167.482 98.9492 170.292 98.3005 172.433 99.6194L183.502 106.516C184.605 107.208 185.362 108.311 185.578 109.608C185.816 110.862 185.47 112.181 184.67 113.197Z" fill="#FFC973" stroke="black" stroke-width="1.5" stroke-miterlimit="10"/>
<path d="M228.883 3.19283C233.099 5.98185 234.267 11.6464 231.499 15.8623L196.431 69.0915L181.146 59.0381L216.214 5.78726C217.597 3.66848 219.716 2.32802 222.008 1.85237C224.3 1.39834 226.786 1.80913 228.883 3.19283Z" fill="#BD3ADD" stroke="black" stroke-width="1.5" stroke-miterlimit="10"/>
<path d="M228.883 3.19283C233.099 5.98185 234.267 11.6464 231.499 15.8623L227.867 21.3755L212.581 11.3004L216.214 5.78727C217.597 3.66848 219.716 2.32802 222.008 1.85237C224.3 1.39834 226.786 1.80913 228.883 3.19283Z" fill="#FFC973" stroke="black" stroke-width="1.5" stroke-miterlimit="10"/>
<path d="M203.177 58.584L181.859 91.9225L178.767 96.7222L176.778 99.8356C176.519 100.225 176.259 100.614 175.978 101.003C172.584 105.673 167.698 108.7 162.401 109.867C156.671 111.121 150.466 110.192 145.148 106.797C138.1 102.279 134.338 94.5386 134.597 86.7337C134.727 82.7555 135.894 78.7558 138.186 75.1668L140.348 71.7724L143.634 66.6484L164.584 33.8937C171.395 23.2348 185.556 20.1215 196.215 26.9535C206.874 33.7639 209.987 47.9252 203.177 58.584Z" fill="#BD3ADD" stroke="black" stroke-width="1.5" stroke-miterlimit="10"/>
<path d="M203.177 58.584L197.274 67.8159L158.682 43.1471L164.584 33.9153C171.395 23.2565 185.556 20.1431 196.215 26.9752C206.874 33.8072 209.987 47.9252 203.177 58.584Z" fill="#FFC973" stroke="black" stroke-width="1.5" stroke-miterlimit="10"/>
<path d="M184.929 42.5418C187.652 42.5418 189.859 40.3348 189.859 37.6124C189.859 34.8899 187.652 32.6829 184.929 32.6829C182.207 32.6829 180 34.8899 180 37.6124C180 40.3348 182.207 42.5418 184.929 42.5418Z" fill="white" stroke="black" stroke-width="1.5" stroke-miterlimit="10"/>
<path d="M187.243 38.0448C187.828 38.0448 188.302 37.5704 188.302 36.9854C188.302 36.4003 187.828 35.926 187.243 35.926C186.657 35.926 186.183 36.4003 186.183 36.9854C186.183 37.5704 186.657 38.0448 187.243 38.0448Z" fill="black"/>
<path d="M199.242 47.8388C201.964 47.8388 204.171 45.6318 204.171 42.9093C204.171 40.1869 201.964 37.9799 199.242 37.9799C196.519 37.9799 194.312 40.1869 194.312 42.9093C194.312 45.6318 196.519 47.8388 199.242 47.8388Z" fill="white" stroke="black" stroke-width="1.5" stroke-miterlimit="10"/>
<path d="M202.182 43.1904C202.767 43.1904 203.241 42.7161 203.241 42.131C203.241 41.5459 202.767 41.0716 202.182 41.0716C201.597 41.0716 201.123 41.5459 201.123 42.131C201.123 42.7161 201.597 43.1904 202.182 43.1904Z" fill="black"/>
<path d="M172.108 44.7903L184.237 46.6713" stroke="black" stroke-width="1.5" stroke-miterlimit="10" stroke-linecap="round"/>
<path d="M178.767 96.7223L176.778 99.8356C176.778 99.8356 176.778 99.8356 176.778 99.8572C176.648 100.052 176.519 100.246 176.389 100.441C176.259 100.636 176.13 100.83 175.978 101.003C173.211 104.808 169.449 107.532 165.298 109.024C164.347 109.37 163.374 109.651 162.401 109.867C158.012 110.84 153.32 110.516 148.953 108.765C147.656 108.246 146.38 107.576 145.148 106.797C142.229 104.938 139.872 102.516 138.143 99.7707C135.678 95.8791 134.467 91.3172 134.619 86.7553C134.619 86.604 134.64 86.431 134.64 86.2796C134.64 86.0851 134.662 85.9121 134.683 85.7391C134.683 85.6094 134.705 85.4797 134.727 85.35C134.727 85.2419 134.748 85.1338 134.77 85.0041C134.77 84.9176 134.792 84.8095 134.813 84.723C134.835 84.5716 134.856 84.4203 134.878 84.269C134.9 84.1609 134.9 84.0528 134.921 83.9663C134.921 83.9447 134.921 83.9447 134.921 83.923C134.943 83.7717 134.965 83.642 134.986 83.4906C135.505 80.6151 136.564 77.8045 138.229 75.2101L140.391 71.8157L178.767 96.7223Z" fill="#FF3E3E" stroke="black" stroke-width="1.5" stroke-miterlimit="10" stroke-linecap="round"/>
<path d="M146.185 105.976L129.365 129.499L119.528 143.271L116.349 154.665C115.701 156.978 113.387 158.383 111.074 157.908C110.966 157.886 110.858 157.864 110.75 157.821C108.328 157.151 106.901 154.643 107.593 152.2L111.204 139.249L122.338 123.661L138.77 100.679C140.24 98.6248 143.072 98.1492 145.126 99.6194C147.18 101.09 147.656 103.943 146.185 105.976Z" fill="#FFC973" stroke="black" stroke-width="1.5" stroke-miterlimit="10"/>
<path d="M181.859 91.9225L178.767 96.7222L140.37 71.794L143.656 66.6484L181.859 91.9225Z" fill="#FFC973" stroke="black" stroke-width="1.5" stroke-miterlimit="10"/>
<path d="M144.867 46.4551L134.013 48.9846C130.165 49.8927 127.765 53.7411 128.673 57.5895L131.203 68.4213L134.619 82.9717L136.132 89.393C137.278 94.3008 142.207 97.3709 147.115 96.2034C149.58 95.6196 151.569 94.1062 152.801 92.1171C154.034 90.1281 154.509 87.6633 153.926 85.2202L152.412 78.799L149.472 66.2809C149.212 65.1566 149.904 64.0324 151.028 63.7729C157.385 62.4108 161.385 56.0977 159.914 49.7846L158.444 43.5147L144.867 46.4551Z" fill="#BD3ADD"/>
<path d="M147.137 96.225C142.229 97.3709 137.299 94.3224 136.154 89.4146L134.64 82.9934L152.455 78.8206L153.969 85.2419C154.552 87.7066 154.077 90.1497 152.844 92.1388C151.59 94.1278 149.601 95.6629 147.137 96.225Z" fill="#FFC973" stroke="black" stroke-width="1.5" stroke-miterlimit="10"/>
<path d="M158.489 43.5147L144.869 46.4551L134.059 48.9846C130.188 49.8927 127.789 53.7627 128.697 57.6111L131.226 68.4213L134.642 82.9717L136.156 89.393C137.302 94.3008 142.231 97.3709 147.139 96.2034C149.604 95.6196 151.593 94.1062 152.825 92.1171C154.057 90.1281 154.533 87.6633 153.949 85.2202L152.436 78.799L149.02 64.1837L156.327 62.627" stroke="black" stroke-width="1.5" stroke-miterlimit="10" stroke-linecap="round"/>
<path d="M168.952 94.6034C173.215 94.6034 176.67 91.1478 176.67 86.885C176.67 82.6222 173.215 79.1666 168.952 79.1666C164.689 79.1666 161.233 82.6222 161.233 86.885C161.233 91.1478 164.689 94.6034 168.952 94.6034Z" fill="#FFC973" stroke="black" stroke-width="1.5" stroke-miterlimit="10"/>
<path d="M122.317 123.704L129.365 129.499L119.528 143.271L116.349 154.665C115.701 156.978 113.387 158.383 111.074 157.908C110.966 157.886 110.858 157.864 110.75 157.821C108.328 157.151 106.901 154.643 107.593 152.2L111.204 139.249L122.317 123.704Z" fill="#FF3E3E" stroke="black" stroke-width="1.5" stroke-miterlimit="10" stroke-linecap="round"/>
<path d="M173.081 127.877L165.449 137.52L163.179 148.762C162.682 151.227 160.282 152.827 157.817 152.33C155.353 151.832 153.753 149.433 154.25 146.946L156.758 134.644C156.909 133.952 157.212 133.282 157.644 132.72L165.644 122.602L173.081 127.877Z" fill="#FF3E3E" stroke="black" stroke-width="1.5" stroke-miterlimit="10" stroke-linecap="round"/>
<path d="M193.837 73.1777L151.504 45.0065L158.487 43.5147L197.253 67.8159L193.837 73.1777Z" fill="#FF3E3E" stroke="black" stroke-width="1.5" stroke-miterlimit="10" stroke-linecap="round"/>
<path d="M123.722 63.2757L90.5781 75.1236" stroke="black" stroke-width="1.5" stroke-miterlimit="10" stroke-linecap="round"/>
<path d="M125.56 70.4103L96.4804 80.7881" stroke="black" stroke-width="1.5" stroke-miterlimit="10" stroke-linecap="round"/>
<path d="M127.419 77.5234L102.383 86.4526" stroke="black" stroke-width="1.5" stroke-miterlimit="10" stroke-linecap="round" stroke-dasharray="15 15"/>
<path d="M129.257 84.6365L108.285 92.1387" stroke="black" stroke-width="1.5" stroke-miterlimit="10" stroke-linecap="round"/>
<path d="M131.095 91.7712L114.187 97.8033" stroke="black" stroke-width="1.5" stroke-miterlimit="10" stroke-linecap="round" stroke-dasharray="15 15"/>
<path d="M176.324 59.4489L170.768 66.2593C169.903 67.3186 170.076 68.8753 171.114 69.7401C172.173 70.6049 173.73 70.432 174.595 69.3942L180.151 62.5838L176.324 59.4489Z" fill="#FF3E3E" stroke="black" stroke-width="1.5" stroke-miterlimit="10" stroke-linecap="round"/>
<path d="M175.416 61.546L177.167 70.1509C177.448 71.4914 178.746 72.3562 180.086 72.0751C181.427 71.794 182.291 70.4968 182.01 69.1564L180.259 60.5515L175.416 61.546Z" fill="#FF3E3E" stroke="black" stroke-width="1.5" stroke-miterlimit="10" stroke-linecap="round"/>
<path d="M178.356 64.3999C180.924 64.3999 183.005 62.3188 183.005 59.7515C183.005 57.1843 180.924 55.1032 178.356 55.1032C175.789 55.1032 173.708 57.1843 173.708 59.7515C173.708 62.3188 175.789 64.3999 178.356 64.3999Z" fill="#FF3E3E" stroke="black" stroke-width="1.5" stroke-miterlimit="10" stroke-linecap="round"/>
<path d="M171.654 83.8366L167.654 83.015L164.974 86.0851L166.271 89.9551L170.27 90.7551L172.951 87.685L171.654 83.8366Z" fill="#BD3ADD" stroke="black" stroke-width="1.5" stroke-miterlimit="10"/>
<path d="M185.275 25.8509C185.275 25.8509 183.632 17.0731 172.216 19.127" stroke="black" stroke-width="1.5" stroke-miterlimit="10" stroke-linecap="round"/>
<path d="M188.15 24.878C188.15 24.878 189.102 19.3432 185.059 16.6623" stroke="black" stroke-width="1.5" stroke-miterlimit="10" stroke-linecap="round"/>
<path d="M124.154 131.077C124.871 131.077 125.452 130.496 125.452 129.78C125.452 129.063 124.871 128.482 124.154 128.482C123.438 128.482 122.857 129.063 122.857 129.78C122.857 130.496 123.438 131.077 124.154 131.077Z" fill="black"/>
<path d="M168.973 130.082C169.69 130.082 170.27 129.502 170.27 128.785C170.27 128.069 169.69 127.488 168.973 127.488C168.257 127.488 167.676 128.069 167.676 128.785C167.676 129.502 168.257 130.082 168.973 130.082Z" fill="black"/>
<path d="M165.255 134.86C165.971 134.86 166.552 134.28 166.552 133.563C166.552 132.847 165.971 132.266 165.255 132.266C164.538 132.266 163.957 132.847 163.957 133.563C163.957 134.28 164.538 134.86 165.255 134.86Z" fill="black"/>
<path d="M120.89 135.531C121.606 135.531 122.187 134.95 122.187 134.234C122.187 133.517 121.606 132.936 120.89 132.936C120.173 132.936 119.593 133.517 119.593 134.234C119.593 134.95 120.173 135.531 120.89 135.531Z" fill="black"/>
<path d="M117.625 140.006C118.341 140.006 118.922 139.425 118.922 138.709C118.922 137.992 118.341 137.412 117.625 137.412C116.909 137.412 116.328 137.992 116.328 138.709C116.328 139.425 116.909 140.006 117.625 140.006Z" fill="black"/>
<path d="M225.186 1.76589L220.559 8.53305" stroke="black" stroke-width="1.5" stroke-miterlimit="10" stroke-linecap="round"/>
<path d="M147.375 88.2903L148.866 95.7061" stroke="black" stroke-width="1.5" stroke-miterlimit="10" stroke-linecap="round"/>
<path d="M142.726 89.0687L144.24 96.4844" stroke="black" stroke-width="1.5" stroke-miterlimit="10" stroke-linecap="round"/>
</svg>
